[
  {
    "fixed": false,
    "project": "GTK",
    "number": 3784,
    "description": "Directory list grows when the content of a file is replaced"
  },
  {
    "fixed": true,
    "project": "GJS",
    "number": 391,
    "description": "Missing hyphen and camelCase getters for CONSTRUCT_ONLY GObject properties defined in JavaScript"
  },
  {
    "fixed": false,
    "project": "GJS",
    "number": 392,
    "description": "GTK4 accessible API has to be overridden"
  },
  {
    "fixed": true,
    "project": "GTK",
    "number": 4023,
    "description": "Name collision in GtkMediaStream API"
  },
  {
    "fixed": true,
    "project": "GTK",
    "number": 4024,
    "description": "GListModel interface not correctly implemented by GtkSelectionFilterModel"
  },
  {
    "fixed": false,
    "project": "GJS",
    "number": 419,
    "description": "Offending GtkTickCallback"
  },
  {
    "fixed": false,
    "project": "GJS",
    "number": 420,
    "description": "Cannot activate actions installed with gtk_widget_class_install_action"
  },
  {
    "fixed": false,
    "project": "GJS",
    "number": 421,
    "description": "Unkown signal with GtkBuilder when the signal has a gpointer parameter"
  },
  {
    "fixed": true,
    "project": "GJS",
    "number": 422,
    "description": "Construct-only properties and GTK Builder"
  }
]
